{
    "es": {
        "acuaticas": "Acuáticas",
        "avistaje": "Avistaje",
        "cabalgatas": "Cabalgatas",
        "camping": "Camping",
        "ciclismo": "Ciclismo",
        "deportes_extremos": "Deportes Extremos",
        "deportes_invernales": "Deportes Invernales",
        "expediciones": "Expediciones",
        "montañismo": "Montañismo",
        "pesca": "Pesca",
        "otros": "Otros"
    },
    "en": {
        "aquatic": "Aquatic",
        "watching": "Watching",
        "cavalcades": "Cavalcades",
        "camping": "Camping",
        "biking": "Biking",
        "extreme_sports": "Extreme Sports",
        "winter_sports": "Winter Sports",
        "expeditions": "Expeditions",
        "mountaineering": "Mountaineering",
        "fishing": "Fishing",
        "others": "Others"
    }
}